<?xml version="1.0" encoding="UTF-8" standalone="no"?>
<svg
   xmlns:dc="http://purl.org/dc/elements/1.1/"
   xmlns:cc="http://creativecommons.org/ns#"
   xmlns:rdf="http://www.w3.org/1999/02/22-rdf-syntax-ns#"
   xmlns:svg="http://www.w3.org/2000/svg"
   xmlns="http://www.w3.org/2000/svg"
   xmlns:sodipodi="http://sodipodi.sourceforge.net/DTD/sodipodi-0.dtd"
   xmlns:inkscape="http://www.inkscape.org/namespaces/inkscape"
   version="1"
   viewBox="0 0 22 22"
   enable-background="new 0 0 48 48"
   id="svg50"
   sodipodi:docname="calculator.svg"
   width="22"
   height="22"
   inkscape:version="0.92.3 (unknown)">
  <metadata
     id="metadata56">
    <rdf:RDF>
      <cc:Work
         rdf:about="">
        <dc:format>image/svg+xml</dc:format>
        <dc:type
           rdf:resource="http://purl.org/dc/dcmitype/StillImage" />
        <dc:title></dc:title>
      </cc:Work>
    </rdf:RDF>
  </metadata>
  <defs
     id="defs54" />
  <sodipodi:namedview
     pagecolor="#ffffff"
     bordercolor="#666666"
     borderopacity="1"
     objecttolerance="10"
     gridtolerance="10"
     guidetolerance="10"
     inkscape:pageopacity="0"
     inkscape:pageshadow="2"
     inkscape:window-width="1244"
     inkscape:window-height="780"
     id="namedview52"
     showgrid="false"
     fit-margin-top="0"
     fit-margin-left="0"
     fit-margin-right="0"
     fit-margin-bottom="0"
     inkscape:zoom="5.46403"
     inkscape:cx="47.586693"
     inkscape:cy="-1.7586241"
     inkscape:window-x="36"
     inkscape:window-y="0"
     inkscape:window-maximized="1"
     inkscape:current-layer="svg50" />
  <path
     style="fill:#d3dae3;fill-opacity:1;stroke-width:0.44771531"
     d="m 5.6273213,2.0448243 c -0.9849736,0 -1.7910157,0.8060418 -1.7910157,1.7910156 V 7.4178712 7.8651368 18.163965 c 0,0.984973 0.8060421,1.791016 1.7910157,1.791016 H 16.373415 c 0.984974,0 1.789062,-0.806043 1.789062,-1.791016 V 7.8651368 7.4178712 3.8358399 c 0,-0.9849738 -0.804088,-1.7910156 -1.789062,-1.7910156 z m 0,1.34375 H 16.373415 c 0.26863,0 0.447266,0.1786365 0.447266,0.4472656 v 2.2402344 c 0,0.2686292 -0.178636,0.4472657 -0.447266,0.4472656 H 5.6273213 c -0.2686291,0 -0.4472657,-0.1786364 -0.4472657,-0.4472656 V 3.8358399 c 0,-0.2686291 0.1786366,-0.4472656 0.4472657,-0.4472656 z m 7.6113277,1.34375 v 0.8945313 h 0.894532 V 4.7323243 Z m 1.791016,0 v 0.8945313 h 0.894531 V 4.7323243 Z"
     id="path2"
     inkscape:connector-curvature="0" />
</svg>
