<?xml version="1.0" encoding="UTF-8" standalone="no"?>
<svg
   xmlns:dc="http://purl.org/dc/elements/1.1/"
   xmlns:cc="http://creativecommons.org/ns#"
   xmlns:rdf="http://www.w3.org/1999/02/22-rdf-syntax-ns#"
   xmlns:svg="http://www.w3.org/2000/svg"
   xmlns="http://www.w3.org/2000/svg"
   xmlns:xlink="http://www.w3.org/1999/xlink"
   xmlns:sodipodi="http://sodipodi.sourceforge.net/DTD/sodipodi-0.dtd"
   xmlns:inkscape="http://www.inkscape.org/namespaces/inkscape"
   id="svg3642"
   width="205"
   height="210.939"
   version="1"
   sodipodi:docname="background.svg"
   inkscape:version="0.92.3 (2405546, 2018-03-11)">
  <metadata
     id="metadata107">
    <rdf:RDF>
      <cc:Work
         rdf:about="">
        <dc:format>image/svg+xml</dc:format>
        <dc:type
           rdf:resource="http://purl.org/dc/dcmitype/StillImage" />
        <dc:title />
      </cc:Work>
    </rdf:RDF>
  </metadata>
  <sodipodi:namedview
     pagecolor="#ffffff"
     bordercolor="#000000"
     borderopacity="1"
     objecttolerance="10"
     gridtolerance="10"
     guidetolerance="10"
     inkscape:pageopacity="0"
     inkscape:pageshadow="2"
     inkscape:window-width="1240"
     inkscape:window-height="774"
     id="namedview105"
     showgrid="false"
     inkscape:zoom="1.4307783"
     inkscape:cx="-47.513249"
     inkscape:cy="127.7568"
     inkscape:window-x="40"
     inkscape:window-y="26"
     inkscape:window-maximized="1"
     inkscape:current-layer="svg3642" />
  <defs
     id="defs3644">
    <style
       id="current-color-scheme"
       type="text/css">
   .ColorScheme-Background { color:#383c4a; }
  </style>
    <radialGradient
       id="radialGradient4263"
       cx="984"
       cy="905.362"
       r="8.5"
       fx="984"
       fy="905.362"
       gradientTransform="matrix(-1.411767,-9.899721e-6,9.8996845e-6,-1.4117618,1527.1698,1378.1046)"
       gradientUnits="userSpaceOnUse"
       xlink:href="#linearGradient4465" />
    <linearGradient
       id="linearGradient4465">
      <stop
         id="stop4467"
         offset="0"
         style="stop-color:#000000;stop-opacity:0.50980395" />
      <stop
         id="stop4469"
         offset="1"
         style="stop-color:#000000;stop-opacity:0" />
    </linearGradient>
    <radialGradient
       id="radialGradient4255"
       cx="982.909"
       cy="906.453"
       r="8.5"
       fx="982.909"
       fy="906.453"
       gradientTransform="matrix(1.4117577,5.5406049e-6,-5.5406032e-6,1.4117573,-1199.6245,-1229.7583)"
       gradientUnits="userSpaceOnUse"
       xlink:href="#linearGradient4465" />
    <linearGradient
       id="linearGradient4259"
       x1="83.6"
       x2="83.6"
       y1="-969.362"
       y2="-957.362"
       gradientTransform="matrix(0.71428571,0,0,1,-317.71429,1250.3622)"
       gradientUnits="userSpaceOnUse"
       xlink:href="#linearGradient4465" />
    <linearGradient
       id="linearGradient4452"
       x1="-260"
       x2="-260"
       y1="281"
       y2="293"
       gradientUnits="userSpaceOnUse"
       xlink:href="#linearGradient4465" />
    <radialGradient
       id="radialGradient3382"
       cx="984"
       cy="905.362"
       r="8.5"
       fx="984"
       fy="905.362"
       gradientTransform="matrix(7.8257357e-6,1.411771,-1.4117668,7.8257123e-6,1466.1525,-1289.2508)"
       gradientUnits="userSpaceOnUse"
       xlink:href="#linearGradient4465" />
    <radialGradient
       id="radialGradient4275"
       cx="984"
       cy="905.362"
       r="8.5"
       fx="984"
       fy="905.362"
       gradientTransform="matrix(-1.6187099e-5,-1.4117565,1.4117775,-1.618734e-5,-1140.1539,1439.1221)"
       gradientUnits="userSpaceOnUse"
       xlink:href="#linearGradient4465" />
    <linearGradient
       id="linearGradient4315"
       x1="83.6"
       x2="83.6"
       y1="-969.362"
       y2="-957.362"
       gradientTransform="matrix(0.71428571,0,0,1,-317.71429,1250.3622)"
       gradientUnits="userSpaceOnUse"
       xlink:href="#linearGradient4465" />
    <linearGradient
       id="linearGradient4317"
       x1="83.6"
       x2="83.6"
       y1="-969.362"
       y2="-957.362"
       gradientTransform="matrix(0.71428571,0,0,1,-317.71429,1250.3622)"
       gradientUnits="userSpaceOnUse"
       xlink:href="#linearGradient4465" />
  </defs>
  <g
     id="top"
     transform="translate(-9,33.93854)"
     style="fill:#353945;fill-opacity:0.50980395">
    <path
       style="opacity:0.9;fill:#353945;fill-opacity:0.50980395;stroke:none"
       id="path111"
       class="ColorScheme-Background"
       d="m 16.999975,9.999935 50.00002,0 0,7 -50.00001,0 z" />
    <g
       id="shadow-top-6"
       transform="matrix(0,-1,-1,0,324,298)"
       style="fill:#353945;fill-opacity:0.50980395" />
    <path
       style="color:#000000;font-style:normal;font-variant:normal;font-weight:normal;font-stretch:normal;font-size:medium;line-height:normal;font-family:sans-serif;text-indent:0;text-align:start;text-decoration:none;text-decoration-line:none;text-decoration-style:solid;text-decoration-color:#000000;letter-spacing:normal;word-spacing:normal;text-transform:none;direction:ltr;block-progression:tb;writing-mode:lr-tb;baseline-shift:baseline;text-anchor:start;white-space:normal;clip-rule:nonzero;display:inline;overflow:visible;visibility:visible;opacity:0.9;isolation:auto;mix-blend-mode:normal;color-interpolation:sRGB;color-interpolation-filters:linearRGB;solid-color:#000000;solid-opacity:1;fill:#353945;fill-opacity:0.50980395;fill-rule:nonzero;stroke:none;stroke-width:2;stroke-linecap:butt;stroke-linejoin:miter;stroke-miterlimit:4;stroke-dasharray:none;stroke-dashoffset:0;stroke-opacity:1;color-rendering:auto;image-rendering:auto;shape-rendering:auto;text-rendering:auto;enable-background:accumulate"
       id="path4433"
       d="M 17,9.0000004 17,10 l 50,0 0,-0.9999996 -50,0 z" />
  </g>
  <rect
     style="opacity:0.9;fill:#353945;fill-opacity:0.50980395;stroke:none"
     id="center"
     class="ColorScheme-Background"
     width="50"
     height="50"
     x="8"
     y="50.94" />
  <g
     id="left"
     transform="translate(-9,33.93854)"
     style="fill:#353945;fill-opacity:0.50980395">
    <path
       style="opacity:0.9;fill:#353945;fill-opacity:0.50980395;stroke:none"
       id="path71"
       class="ColorScheme-Background"
       d="m 10.000015,16.999925 0,50 7,10e-6 0,-50 z" />
    <g
       id="shadow-left-3"
       transform="matrix(-1,0,0,1,298,-240)"
       style="fill:#353945;fill-opacity:0.50980395" />
    <path
       style="color:#000000;font-style:normal;font-variant:normal;font-weight:normal;font-stretch:normal;font-size:medium;line-height:normal;font-family:sans-serif;text-indent:0;text-align:start;text-decoration:none;text-decoration-line:none;text-decoration-style:solid;text-decoration-color:#000000;letter-spacing:normal;word-spacing:normal;text-transform:none;direction:ltr;block-progression:tb;writing-mode:lr-tb;baseline-shift:baseline;text-anchor:start;white-space:normal;clip-rule:nonzero;display:inline;overflow:visible;visibility:visible;opacity:0.9;isolation:auto;mix-blend-mode:normal;color-interpolation:sRGB;color-interpolation-filters:linearRGB;solid-color:#000000;solid-opacity:1;fill:#353945;fill-opacity:0.50980395;fill-rule:nonzero;stroke:none;stroke-width:2;stroke-linecap:butt;stroke-linejoin:miter;stroke-miterlimit:4;stroke-dasharray:none;stroke-dashoffset:0;stroke-opacity:1;color-rendering:auto;image-rendering:auto;shape-rendering:auto;text-rendering:auto;enable-background:accumulate"
       id="path4438"
       d="m 9,17 0,50 1,0 0,-50 -1,0 z" />
  </g>
  <g
     id="right"
     transform="translate(-8.999995,33.938605)"
     style="fill:#353945;fill-opacity:0.50980392">
    <path
       style="color:#383c4a;opacity:0.9;fill:#353945;fill-opacity:0.50980392;stroke:none"
       id="path79"
       class="ColorScheme-Background"
       d="m 73.999995,16.999935 v 50 l -7,1e-5 v -50 z"
       inkscape:connector-curvature="0" />
    <g
       id="shadow-right-2"
       transform="translate(-214,-240)"
       style="fill:#353945;fill-opacity:0.50980392" />
    <path
       style="color:#000000;font-style:normal;font-variant:normal;font-weight:normal;font-stretch:normal;font-size:medium;line-height:normal;font-family:sans-serif;text-indent:0;text-align:start;text-decoration:none;text-decoration-line:none;text-decoration-style:solid;text-decoration-color:#000000;letter-spacing:normal;word-spacing:normal;text-transform:none;writing-mode:lr-tb;direction:ltr;baseline-shift:baseline;text-anchor:start;white-space:normal;clip-rule:nonzero;display:inline;overflow:visible;visibility:visible;opacity:0.9;isolation:auto;mix-blend-mode:normal;color-interpolation:sRGB;color-interpolation-filters:linearRGB;solid-color:#000000;solid-opacity:1;fill:#353945;fill-opacity:0.50980392;fill-rule:nonzero;stroke:none;stroke-width:2;stroke-linecap:butt;stroke-linejoin:miter;stroke-miterlimit:4;stroke-dasharray:none;stroke-dashoffset:0;stroke-opacity:1;color-rendering:auto;image-rendering:auto;shape-rendering:auto;text-rendering:auto;enable-background:accumulate"
       id="path4440"
       d="m 74,17 v 50 h 1 V 17 Z"
       inkscape:connector-curvature="0" />
  </g>
  <g
     id="bottom"
     transform="translate(-9,33.93854)"
     style="fill:#353945;fill-opacity:0.50980395">
    <path
       style="opacity:0.9;fill:#353945;fill-opacity:0.50980395;stroke:none"
       id="path95"
       class="ColorScheme-Background"
       d="m 16.999975,74.000065 50.00002,0 0,-7 -50.00001,0 z" />
    <g
       id="shadow-bottom-9"
       transform="matrix(0,1,-1,0,324,-214)"
       style="fill:#353945;fill-opacity:0.50980395" />
    <path
       style="color:#000000;font-style:normal;font-variant:normal;font-weight:normal;font-stretch:normal;font-size:medium;line-height:normal;font-family:sans-serif;text-indent:0;text-align:start;text-decoration:none;text-decoration-line:none;text-decoration-style:solid;text-decoration-color:#000000;letter-spacing:normal;word-spacing:normal;text-transform:none;direction:ltr;block-progression:tb;writing-mode:lr-tb;baseline-shift:baseline;text-anchor:start;white-space:normal;clip-rule:nonzero;display:inline;overflow:visible;visibility:visible;opacity:0.9;isolation:auto;mix-blend-mode:normal;color-interpolation:sRGB;color-interpolation-filters:linearRGB;solid-color:#000000;solid-opacity:1;fill:#353945;fill-opacity:0.50980395;fill-rule:nonzero;stroke:none;stroke-width:2;stroke-linecap:butt;stroke-linejoin:miter;stroke-miterlimit:4;stroke-dasharray:none;stroke-dashoffset:0;stroke-opacity:1;color-rendering:auto;image-rendering:auto;shape-rendering:auto;text-rendering:auto;enable-background:accumulate"
       id="path4436"
       d="m 17,74 0,1 50,0 0,-1 -50,0 z" />
  </g>
  <g
     id="topleft"
     transform="translate(-9,0.99954536)"
     style="fill:#353945;fill-opacity:0.50980395">
    <path
       style="opacity:0.9;fill:#353945;fill-opacity:0.50980395;stroke:none"
       id="path63"
       class="ColorScheme-Background"
       d="m 17.000005,42.93893 0,7 -7,0 0,-2 c 0,-2.77 2.23,-5 5,-5 z" />
    <path
       id="path4256"
       d="m 15,41.939453 c -3.306703,0 -6,2.693297 -6,6 l 0,2 1,0 0,-2 c 0,-2.77 2.23,-5 5,-5 l 2,0 0,-1 -2,0 z"
       style="color:#000000;opacity:0.9;fill:#353945;fill-opacity:0.50980395" />
  </g>
  <g
     id="topright"
     transform="translate(-9,0.99954536)"
     style="fill:#353945;fill-opacity:0.50980395">
    <path
       style="opacity:0.91;fill:#353945;fill-opacity:0.50980395;stroke:none"
       id="path119"
       class="ColorScheme-Background"
       d="m 66.999995,42.93893 0,7 7,0 0,-2 c 0,-2.77 -2.23,-5 -5,-5 z" />
    <path
       style="color:#000000;opacity:0.9;fill:#353945;fill-opacity:0.50980395"
       id="path4272"
       d="m 69,41.938995 c 3.306703,0 6,2.693297 6,6 l 0,2 -1,0 0,-2 c 0,-2.77 -2.23,-5 -5,-5 l -2,0 0,-1 2,0 z" />
  </g>
  <g
     id="bottomleft"
     transform="translate(-9,0.99954536)"
     style="fill:#353945;fill-opacity:0.50980395">
    <path
       style="opacity:0.9;fill:#353945;fill-opacity:0.50980395;stroke:none"
       id="path87"
       class="ColorScheme-Background"
       d="m 17.000005,106.93902 0,-7 -7,0 0,2 c 0,2.77 2.23,5 5,5 z" />
    <path
       style="color:#000000;opacity:0.9;fill:#353945;fill-opacity:0.50980395"
       id="path4274"
       d="m 15,107.939 c -3.306703,0 -6,-2.6933 -6,-6 l 0,-2.000005 1,0 0,2.000005 c 0,2.77 2.23,5 5,5 l 2,0 0,1 -2,0 z" />
  </g>
  <g
     id="bottomright"
     transform="translate(-9,0.99954536)"
     style="fill:#353945;fill-opacity:0.50980395">
    <path
       style="opacity:0.9;fill:#353945;fill-opacity:0.50980395;stroke:none"
       id="path103"
       class="ColorScheme-Background"
       d="m 66.999995,106.93902 0,-7 7,0 0,2 c 0,2.77 -2.23,5 -5,5 z" />
    <path
       id="path4276"
       d="m 69,107.93945 c 3.306703,0 6,-2.69329 6,-6 l 0,-2.000005 -1,0 0,2.000005 c 0,2.77 -2.23,5 -5,5 l -2,0 0,1 2,0 z"
       style="color:#000000;opacity:0.9;fill:#353945;fill-opacity:0.50980395" />
  </g>
  <g
     style="fill:#000000;fill-opacity:0"
     id="shadow-center"
     transform="matrix(0.31570315,0,0,0.31570315,1.894219,193.8907)">
    <path
       style="fill:#000000;fill-opacity:0;stroke:none"
       id="path3642"
       d="m -6.0000004,-7.998957 0,62 62.0000004,0 0,-62 -62.0000004,0 z" />
  </g>
  <rect
     style="opacity:1;fill:#87a96b;fill-opacity:1;stroke:none"
     id="hint-top-margin"
     width="4"
     height="10"
     x="29"
     y="50.94" />
  <rect
     style="opacity:1;fill:#87a96b;fill-opacity:1;stroke:none"
     id="hint-bottom-margin"
     width="4"
     height="10"
     x="29"
     y="90.94" />
  <rect
     style="opacity:1;fill:#87a96b;fill-opacity:1;stroke:none"
     id="hint-left-margin"
     width="10"
     height="4"
     x="8"
     y="73.94" />
  <rect
     style="opacity:1;fill:#87a96b;fill-opacity:1;stroke:none"
     id="hint-right-margin"
     width="10"
     height="4"
     x="48"
     y="73.94" />
  <rect
     style="fill:#353945;fill-opacity:0.50980395;stroke:none"
     id="mask-center"
     width="50"
     height="50"
     x="71"
     y="143.94" />
  <g
     id="mask-topright"
     transform="translate(-183,-207.06091)"
     style="fill:#353945;fill-opacity:0.50980395">
    <path
       style="fill:#353945;fill-opacity:0.50980395;stroke:none"
       id="path4120"
       d="m 304.00003,343.99992 0,7 7,0 0,-2 c 0,-2.77 -2.23,-5 -5,-5 z" />
  </g>
  <g
     id="mask-top"
     transform="translate(-183,-207.06091)"
     style="fill:#353945;fill-opacity:0.50980395">
    <path
       style="fill:#353945;fill-opacity:0.50980395;stroke:none"
       id="path4128"
       d="m 253.99999,344 50,0 10e-6,7 -50,0 z" />
  </g>
  <g
     id="mask-bottomright"
     transform="matrix(1,0,0,-1,-183,544.93901)"
     style="fill:#353945;fill-opacity:0.50980395">
    <path
       style="fill:#353945;fill-opacity:0.50980395;stroke:none"
       id="path4458"
       d="m 304.00003,343.99992 0,7 7,0 0,-2 c 0,-2.77 -2.23,-5 -5,-5 z" />
  </g>
  <g
     id="mask-bottom"
     transform="matrix(1,0,0,-1,-183,544.93909)"
     style="fill:#353945;fill-opacity:0.50980395">
    <path
       style="fill:#353945;fill-opacity:0.50980395;stroke:none"
       id="path4464"
       d="m 253.99999,344 50,0 10e-6,7 -50,0 z" />
  </g>
  <g
     id="mask-bottomleft"
     transform="matrix(-1,0,0,-1,375.00003,544.93901)"
     style="fill:#353945;fill-opacity:0.50980395">
    <path
       style="fill:#353945;fill-opacity:0.50980395;stroke:none"
       id="path4472"
       d="m 304.00003,343.99992 0,7 7,0 0,-2 c 0,-2.77 -2.23,-5 -5,-5 z" />
  </g>
  <g
     id="mask-right"
     transform="matrix(0,1,-1,0,472,-110.0609)"
     style="fill:#353945;fill-opacity:0.50980395">
    <path
       style="fill:#353945;fill-opacity:0.50980395;stroke:none"
       id="path4478"
       d="m 253.99999,344 50,0 10e-6,7 -50,0 z" />
  </g>
  <g
     id="mask-left"
     transform="matrix(0,1,1,0,-280,-110.06091)"
     style="fill:#353945;fill-opacity:0.50980395">
    <path
       style="fill:#353945;fill-opacity:0.50980395;stroke:none"
       id="path4486"
       d="m 253.99999,344 50,0 10e-6,7 -50,0 z" />
  </g>
  <g
     id="mask-topleft"
     transform="matrix(-1,0,0,1,375.00003,-207.06091)"
     style="fill:#353945;fill-opacity:0.50980395">
    <path
       style="fill:#353945;fill-opacity:0.50980395;stroke:none"
       id="path4494"
       d="m 304.00003,343.99992 0,7 7,0 0,-2 c 0,-2.77 -2.23,-5 -5,-5 z" />
  </g>
  <rect
     style="opacity:1;fill:#87a96b;fill-opacity:1;stroke:none"
     id="hint-tile-center"
     width="5"
     height="5"
     x="0"
     y="-.06" />
  <path
     style="opacity:1;fill:url(#radialGradient4275);fill-opacity:1;stroke:none"
     id="shadow-topleft"
     d="m 121,49.93897 10,0 0,-2 c 0,-2.77 2.23,-5 5,-5 l 2,0 0,-10 -17,0 z" />
  <g
     id="shadow-left"
     transform="matrix(-1,0,0,1,419,-207.06102)">
    <rect
       style="opacity:1;fill:url(#linearGradient4315);fill-opacity:1;stroke:none"
       id="rect4267"
       width="50"
       height="10"
       x="-307"
       y="288"
       transform="matrix(0,-1,1,0,0,0)" />
    <rect
       style="fill:#3498db;fill-opacity:0"
       id="rect4269"
       width="7"
       height="1"
       x="278"
       y="257"
       transform="translate(3,2)" />
  </g>
  <path
     style="opacity:1;fill:url(#radialGradient3382);fill-opacity:1;stroke:none"
     id="shadow-bottomright"
     d="m 205,99.93897 -10,0 0,2 c 0,2.77 -2.23,5 -5,5 l -2,0 0,10 17,0 z" />
  <g
     id="shadow-bottom"
     transform="matrix(0,1,-1,0,445,-181.06102)">
    <rect
       style="opacity:1;fill:url(#linearGradient4317);fill-opacity:1;stroke:none"
       id="rect3389"
       width="50"
       height="10"
       x="-307"
       y="288"
       transform="matrix(0,-1,1,0,0,0)" />
    <rect
       style="fill:#3498db;fill-opacity:0"
       id="rect4241"
       width="7"
       height="1"
       x="278"
       y="257"
       transform="translate(3,2)" />
  </g>
  <g
     id="shadow-right"
     transform="translate(-93,-207.06102)">
    <rect
       style="opacity:1;fill:url(#linearGradient4452);fill-opacity:1;stroke:none"
       id="rect4251"
       width="50"
       height="10"
       x="-307"
       y="288"
       transform="matrix(0,-1,1,0,0,0)" />
    <rect
       style="fill:#3498db;fill-opacity:0"
       id="rect4253"
       width="7"
       height="1"
       x="278"
       y="257"
       transform="translate(3,2)" />
  </g>
  <g
     id="shadow-top"
     transform="matrix(0,-1,-1,0,445,330.93897)">
    <rect
       style="opacity:1;fill:url(#linearGradient4259);fill-opacity:1;stroke:none"
       id="rect4279"
       width="50"
       height="10"
       x="-307"
       y="288"
       transform="matrix(0,-1,1,0,0,0)" />
    <rect
       style="fill:#3498db;fill-opacity:0"
       id="rect4281"
       width="7"
       height="1"
       x="278"
       y="257"
       transform="translate(3,2)" />
  </g>
  <path
     style="opacity:1;fill:url(#radialGradient4255);fill-opacity:1;stroke:none"
     id="shadow-topright"
     d="m 188,32.93897 0,10 2,0 c 2.77,0 5,2.23 5,5 l 0,2 10,0 0,-17 z" />
  <path
     style="opacity:1;fill:url(#radialGradient4263);fill-opacity:1;stroke:none"
     id="shadow-bottomleft"
     d="m 138,116.93897 0,-10 -2,0 c -2.77,0 -5,-2.23 -5,-5 l 0,-2 -10,0 0,17 z" />
  <rect
     style="opacity:1;fill:#87a96b;fill-opacity:1;stroke:none"
     id="shadow-hint-right-margin"
     width="10"
     height="4"
     x="195"
     y="72.94" />
  <rect
     style="opacity:1;fill:#87a96b;fill-opacity:1;stroke:none"
     id="shadow-hint-bottom-margin"
     width="4"
     height="10"
     x="161"
     y="106.94" />
  <rect
     style="opacity:1;fill:#87a96b;fill-opacity:1;stroke:none"
     id="shadow-hint-left-margin"
     width="10"
     height="4"
     x="121"
     y="72.94" />
  <rect
     style="opacity:1;fill:#87a96b;fill-opacity:1;stroke:none"
     id="shadow-hint-top-margin"
     width="4"
     height="10"
     x="162"
     y="32.94" />
</svg>
